unidade3/simulation/qsim/controlecooler.msim.vcd
$comment
	File created using the following command:
		vcd file controlecooler.msim.vcd -direction
$end
$date
	Wed Jun 14 10:47:26 2017
$end
$version
	ModelSim Version 10.1d
$end
$timescale
	1ps
$end
$scope module controlecooler_vlg_vec_tst $end
$var reg 1 ! CLK_50MHz $end
$var reg 1 " PWM1_clr $end
$var reg 1 # PWN1_en $end
$var wire 1 $ PWM1_signal_out $end
$var wire 1 % sampler $end
$scope module i1 $end
$var wire 1 & gnd $end
$var wire 1 ' vcc $end
$var wire 1 ( unknown $end
$var tri1 1 ) devclrn $end
$var tri1 1 * devpor $end
$var tri1 1 + devoe $end
$var wire 1 , contador_pwm1|LPM_COUNTER_component|auto_generated|counter_comb_bita0~combout $end
$var wire 1 - contador_pwm1|LPM_COUNTER_component|auto_generated|counter_comb_bita1~combout $end
$var wire 1 . contador_pwm1|LPM_COUNTER_component|auto_generated|counter_comb_bita5~combout $end
$var wire 1 / contador_pwm1|LPM_COUNTER_component|auto_generated|cmpr2|aneb_result_wire[0]~2_combout $end
$var wire 1 0 CLK_50MHz~combout $end
$var wire 1 1 CLK_50MHz~clkctrl_outclk $end
$var wire 1 2 contador_pwm1|LPM_COUNTER_component|auto_generated|counter_comb_bita0~COUT $end
$var wire 1 3 contador_pwm1|LPM_COUNTER_component|auto_generated|counter_comb_bita1~COUT $end
$var wire 1 4 contador_pwm1|LPM_COUNTER_component|auto_generated|counter_comb_bita2~combout $end
$var wire 1 5 ~GND~combout $end
$var wire 1 6 PWM1_clr~combout $end
$var wire 1 7 PWM1_clr~clkctrl_outclk $end
$var wire 1 8 contador_pwm1|LPM_COUNTER_component|auto_generated|counter_comb_bita3~COUT $end
$var wire 1 9 contador_pwm1|LPM_COUNTER_component|auto_generated|counter_comb_bita4~combout $end
$var wire 1 : PWN1_en~combout $end
$var wire 1 ; contador_pwm1|LPM_COUNTER_component|auto_generated|counter_comb_bita4~COUT $end
$var wire 1 < contador_pwm1|LPM_COUNTER_component|auto_generated|counter_comb_bita5~COUT $end
$var wire 1 = contador_pwm1|LPM_COUNTER_component|auto_generated|counter_comb_bita6~combout $end
$var wire 1 > contador_pwm1|LPM_COUNTER_component|auto_generated|counter_comb_bita6~COUT $end
$var wire 1 ? contador_pwm1|LPM_COUNTER_component|auto_generated|counter_comb_bita7~combout $end
$var wire 1 @ contador_pwm1|LPM_COUNTER_component|auto_generated|counter_comb_bita7~COUT $end
$var wire 1 A contador_pwm1|LPM_COUNTER_component|auto_generated|counter_comb_bita8~combout $end
$var wire 1 B contador_pwm1|LPM_COUNTER_component|auto_generated|cmpr2|aneb_result_wire[0]~0_combout $end
$var wire 1 C contador_pwm1|LPM_COUNTER_component|auto_generated|counter_comb_bita8~COUT $end
$var wire 1 D contador_pwm1|LPM_COUNTER_component|auto_generated|counter_comb_bita9~combout $end
$var wire 1 E contador_pwm1|LPM_COUNTER_component|auto_generated|cmpr2|aneb_result_wire[0]~1_combout $end
$var wire 1 F contador_pwm1|LPM_COUNTER_component|auto_generated|counter_comb_bita9~COUT $end
$var wire 1 G contador_pwm1|LPM_COUNTER_component|auto_generated|counter_comb_bita9~0_combout $end
$var wire 1 H contador_pwm1|LPM_COUNTER_component|auto_generated|cout_actual~combout $end
$var wire 1 I contador_pwm1|LPM_COUNTER_component|auto_generated|counter_comb_bita2~COUT $end
$var wire 1 J contador_pwm1|LPM_COUNTER_component|auto_generated|counter_comb_bita3~combout $end
$var wire 1 K comparador_pwm1|LPM_COMPARE_component|auto_generated|op_1~0_combout $end
$var wire 1 L comparador_pwm1|LPM_COMPARE_component|auto_generated|op_1~1_combout $end
$var wire 1 M contador_pwm1|LPM_COUNTER_component|auto_generated|safe_q [9] $end
$var wire 1 N contador_pwm1|LPM_COUNTER_component|auto_generated|safe_q [8] $end
$var wire 1 O contador_pwm1|LPM_COUNTER_component|auto_generated|safe_q [7] $end
$var wire 1 P contador_pwm1|LPM_COUNTER_component|auto_generated|safe_q [6] $end
$var wire 1 Q contador_pwm1|LPM_COUNTER_component|auto_generated|safe_q [5] $end
$var wire 1 R contador_pwm1|LPM_COUNTER_component|auto_generated|safe_q [4] $end
$var wire 1 S contador_pwm1|LPM_COUNTER_component|auto_generated|safe_q [3] $end
$var wire 1 T contador_pwm1|LPM_COUNTER_component|auto_generated|safe_q [2] $end
$var wire 1 U contador_pwm1|LPM_COUNTER_component|auto_generated|safe_q [1] $end
$var wire 1 V contador_pwm1|LPM_COUNTER_component|auto_generated|safe_q [0] $end
$upscope $end
$upscope $end
$enddefinitions $end
#0
$dumpvars
0!
0"
1#
1$
x%
0&
1'
x(
1)
1*
1+
1,
0-
0.
0/
00
01
02
13
04
05
06
07
18
09
1:
0;
1<
0=
0>
0?
1@
0A
0B
0C
0D
0E
1F
0G
0H
0I
0J
1K
1L
0V
0U
0T
0S
0R
0Q
0P
0O
0N
0M
$end
#5000
1!
10
11
0%
1V
12
0,
1-
#10000
0!
00
01
1%
#15000
1!
10
11
0%
0V
1U
02
1,
03
0-
13
1-
14
04
#20000
0!
00
01
1%
#25000
1!
10
11
0%
1V
1/
12
0,
03
0-
14
#30000
0!
00
01
1%
#35000
1!
10
11
0%
1T
0V
0U
1I
04
0/
02
1,
13
1-
1J
0-
0I
14
0J
#40000
0!
00
01
1%
#45000
1!
10
11
0%
1V
12
0,
1-
#50000
0!
00
01
1%
#55000
1!
10
11
0%
0V
1U
02
1,
03
0-
13
1-
1I
04
0I
14
1J
0J
#60000
0!
00
01
1%
#65000
1!
10
11
0%
1V
1/
12
0,
03
0-
1I
04
1J
#70000
0!
00
01
1%
#75000
1!
10
11
0%
1S
0T
0V
0U
08
0J
0I
14
0/
02
1,
13
1-
19
18
1J
0-
04
09
#80000
0!
00
01
1%
#85000
1!
10
11
0%
1V
12
0,
1-
#90000
0!
00
01
1%
#95000
1!
10
11
0%
0V
1U
02
1,
03
0-
13
1-
14
04
#100000
0!
00
01
1%
#105000
1!
10
11
0%
1V
1/
12
0,
03
0-
14
#110000
0!
00
01
1%
#115000
1!
10
11
0%
1T
0V
0U
1I
04
0/
02
1,
13
1-
08
0J
0-
0I
14
19
18
1J
09
#120000
0!
00
01
1%
#125000
1!
10
11
0%
1V
12
0,
1-
#130000
0!
00
01
1%
#135000
1!
10
11
0%
0V
1U
02
1,
03
0-
13
1-
1I
04
0I
14
08
0J
18
1J
19
09
#140000
0!
00
01
1%
#145000
1!
10
11
0%
1V
1/
12
0,
03
0-
1I
04
08
0J
19
#150000
0!
00
01
1%
#155000
1!
10
11
0%
0S
0T
1R
0V
0U
18
1J
0I
14
1;
09
0/
02
1,
13
1-
0;
19
0J
1.
0-
04
0.
#160000
0!
00
01
1%
#165000
1!
10
11
0%
1V
12
0,
1-
#170000
0!
00
01
1%
#175000
1!
10
11
0%
0V
1U
02
1,
03
0-
13
1-
14
04
#180000
0!
00
01
1%
#185000
1!
10
11
0%
1V
1/
12
0,
03
0-
14
#190000
0!
00
01
1%
#195000
1!
10
11
0%
1T
0V
0U
0K
1I
04
0/
02
1,
13
1-
1J
0-
0I
14
0J
#200000
0!
00
01
1%
#205000
1!
10
11
0%
1V
12
0,
1-
#210000
0!
00
01
1%
#215000
1!
10
11
0%
0V
1U
02
1,
03
0-
13
1-
1I
04
0I
14
1J
0J
#220000
0!
00
01
1%
#225000
1!
10
11
0%
1V
1/
12
0,
03
0-
1I
04
1J
#230000
0!
00
01
1%
#235000
1!
10
11
0%
1S
0T
0V
0U
08
0J
0I
14
0/
02
1,
13
1-
1;
09
18
1J
0-
04
1.
0;
19
0.
#240000
0!
00
01
1%
#245000
1!
10
11
0%
1V
12
0,
1-
#250000
0!
00
01
1%
#255000
1!
10
11
0%
0V
1U
02
1,
03
0-
13
1-
14
04
#260000
0!
00
01
1%
#265000
1!
10
11
0%
1V
1/
12
0,
03
0-
14
#270000
0!
00
01
1%
#275000
1!
10
11
0%
1T
0V
0U
1I
04
0/
02
1,
13
1-
08
0J
0-
0I
14
1;
09
18
1J
1.
0;
19
0.
#280000
0!
00
01
1%
#285000
1!
10
11
0%
1V
12
0,
1-
#290000
0!
00
01
1%
#295000
1!
10
11
0%
0V
1U
02
1,
03
0-
13
1-
1I
04
0I
14
08
0J
18
1J
1;
09
0;
19
1.
0.
#300000
0!
00
01
1%
#305000
1!
10
11
0%
1V
1/
12
0,
03
0-
1I
04
08
0J
1;
09
1.
#310000
0!
00
01
1%
#315000
1!
10
11
0%
0S
0T
0R
0V
0U
1Q
1K
18
1J
0I
14
0;
19
0/
02
1,
13
1-
0<
0.
09
0J
1<
1.
0-
04
1=
0=
#320000
0!
00
01
1%
#325000
1!
10
11
0%
1V
12
0,
1-
#330000
0!
00
01
1%
#335000
1!
10
11
0%
0V
1U
02
1,
03
0-
13
1-
14
04
#340000
0!
00
01
1%
#345000
1!
10
11
0%
1V
1/
12
0,
03
0-
14
#350000
0!
00
01
1%
#355000
1!
10
11
0%
1T
0V
0U
1I
04
0/
02
1,
13
1-
1J
0-
0I
14
0J
#360000
0!
00
01
1%
#365000
1!
10
11
0%
1V
12
0,
1-
#370000
0!
00
01
1%
#375000
1!
10
11
0%
0V
1U
02
1,
03
0-
13
1-
1I
04
0I
14
1J
0J
#380000
0!
00
01
1%
#385000
1!
10
11
0%
1V
1/
12
0,
03
0-
1I
04
1J
#390000
0!
00
01
1%
#395000
1!
10
11
0%
1S
0T
0V
0U
08
0J
0I
14
0/
02
1,
13
1-
19
18
1J
0-
04
09
#400000
0!
00
01
1%
#405000
1!
10
11
0%
1V
12
0,
1-
#410000
0!
00
01
1%
#415000
1!
10
11
0%
0V
1U
02
1,
03
0-
13
1-
14
04
#420000
0!
00
01
1%
#425000
1!
10
11
0%
1V
1/
12
0,
03
0-
14
#430000
0!
00
01
1%
#435000
1!
10
11
0%
1T
0V
0U
1I
04
0/
02
1,
13
1-
08
0J
0-
0I
14
19
18
1J
09
#440000
0!
00
01
1%
#445000
1!
10
11
0%
1V
12
0,
1-
#450000
0!
00
01
1%
#455000
1!
10
11
0%
0V
1U
02
1,
03
0-
13
1-
1I
04
0I
14
08
0J
18
1J
19
09
#460000
0!
00
01
1%
#465000
1!
10
11
0%
1V
1/
12
0,
03
0-
1I
04
08
0J
19
#470000
0!
00
01
1%
#475000
1!
10
11
0%
0S
0T
1R
0V
0U
18
1J
0I
14
1;
09
0/
02
1,
13
1-
0;
19
0J
0<
0.
0-
04
1<
1.
1=
0=
#480000
0!
00
01
1%
#485000
1!
10
11
0%
1V
12
0,
1-
#490000
0!
00
01
1%
#495000
1!
10
11
0%
0V
1U
02
1,
03
0-
13
1-
14
04
#500000
0!
00
01
1%
#505000
1!
10
11
0%
1V
1/
12
0,
03
0-
14
#510000
0!
00
01
1%
#515000
1!
10
11
0%
1T
0V
0U
0K
1I
04
0/
02
1,
13
1-
1J
0-
0I
14
0J
#520000
0!
00
01
1%
#525000
1!
10
11
0%
1V
12
0,
1-
#530000
0!
00
01
1%
#535000
1!
10
11
0%
0V
1U
02
1,
03
0-
13
1-
1I
04
0I
14
1J
0J
#540000
0!
00
01
1%
#545000
1!
10
11
0%
1V
1/
12
0,
03
0-
1I
04
1J
#550000
0!
00
01
1%
#555000
1!
10
11
0%
1S
0T
0V
0U
08
0J
0I
14
0/
02
1,
13
1-
1;
09
18
1J
0-
04
0<
0.
0;
19
1=
1<
1.
0=
#560000
0!
00
01
1%
#565000
1!
10
11
0%
1V
12
0,
1-
#570000
0!
00
01
1%
#575000
1!
10
11
0%
0V
1U
02
1,
03
0-
13
1-
14
04
#580000
0!
00
01
1%
#585000
1!
10
11
0%
1V
1/
12
0,
03
0-
14
#590000
0!
00
01
1%
#595000
1!
10
11
0%
1T
0V
0U
1I
04
0/
02
1,
13
1-
08
0J
0-
0I
14
1;
09
18
1J
0<
0.
0;
19
1=
1<
1.
0=
#600000
0!
00
01
1%
#605000
1!
10
11
0%
1V
12
0,
1-
#610000
0!
00
01
1%
#615000
1!
10
11
0%
0V
1U
02
1,
03
0-
13
1-
1I
04
0I
14
08
0J
18
1J
1;
09
0;
19
0<
0.
1<
1.
1=
0=
#620000
0!
00
01
1%
#625000
1!
10
11
0%
1V
1/
12
0,
03
0-
1I
04
08
0J
1;
09
0<
0.
1=
#630000
0!
00
01
1%
#635000
1!
10
11
0%
0S
0T
1P
0R
0V
0U
0Q
1K
18
1J
0I
14
1>
0=
0;
19
0/
02
1,
13
1-
1<
1.
09
0J
1?
0.
0-
04
0>
1=
0?
#640000
0!
00
01
1%
#645000
1!
10
11
0%
1V
12
0,
1-
#650000
0!
00
01
1%
#655000
1!
10
11
0%
0V
1U
02
1,
03
0-
13
1-
14
04
#660000
0!
00
01
1%
#665000
1!
10
11
0%
1V
1/
12
0,
03
0-
14
#670000
0!
00
01
1%
#675000
1!
10
11
0%
1T
0V
0U
1I
04
0/
02
1,
13
1-
1J
0-
0I
14
0J
#680000
0!
00
01
1%
#685000
1!
10
11
0%
1V
12
0,
1-
#690000
0!
00
01
1%
#695000
1!
10
11
0%
0V
1U
02
1,
03
0-
13
1-
1I
04
0I
14
1J
0J
#700000
0!
00
01
1%
#705000
1!
10
11
0%
1V
1/
12
0,
03
0-
1I
04
1J
#710000
0!
00
01
1%
#715000
1!
10
11
0%
1S
0T
0V
0U
08
0J
0I
14
0/
02
1,
13
1-
19
18
1J
0-
04
09
#720000
0!
00
01
1%
#725000
1!
10
11
0%
1V
12
0,
1-
#730000
0!
00
01
1%
#735000
1!
10
11
0%
0V
1U
02
1,
03
0-
13
1-
14
04
#740000
0!
00
01
1%
#745000
1!
10
11
0%
1V
1/
12
0,
03
0-
14
#750000
0!
00
01
1%
#755000
1!
10
11
0%
1T
0V
0U
1I
04
0/
02
1,
13
1-
08
0J
0-
0I
14
19
18
1J
09
#760000
0!
00
01
1%
#765000
1!
10
11
0%
1V
12
0,
1-
#770000
0!
00
01
1%
#775000
1!
10
11
0%
0V
1U
02
1,
03
0-
13
1-
1I
04
0I
14
08
0J
18
1J
19
09
#780000
0!
00
01
1%
#785000
1!
10
11
0%
1V
1/
12
0,
03
0-
1I
04
08
0J
19
#790000
0!
00
01
1%
#795000
1!
10
11
0%
0S
0T
1R
0V
0U
18
1J
0I
14
1;
09
0/
02
1,
13
1-
0;
19
0J
1.
0-
04
0.
#800000
0!
00
01
1%
#805000
1!
10
11
0%
1V
12
0,
1-
#810000
0!
00
01
1%
#815000
1!
10
11
0%
0V
1U
02
1,
03
0-
13
1-
14
04
#820000
0!
00
01
1%
#825000
1!
10
11
0%
1V
1/
12
0,
03
0-
14
#830000
0!
00
01
1%
#835000
1!
10
11
0%
1T
0V
0U
0K
1I
04
0/
02
1,
13
1-
1J
0-
0I
14
0J
#840000
0!
00
01
1%
#845000
1!
10
11
0%
1V
12
0,
1-
#850000
0!
00
01
1%
#855000
1!
10
11
0%
0V
1U
02
1,
03
0-
13
1-
1I
04
0I
14
1J
0J
#860000
0!
00
01
1%
#865000
1!
10
11
0%
1V
1/
12
0,
03
0-
1I
04
1J
#870000
0!
00
01
1%
#875000
1!
10
11
0%
1S
0T
0V
0U
08
0J
0I
14
0/
02
1,
13
1-
1;
09
18
1J
0-
04
1.
0;
19
0.
#880000
0!
00
01
1%
#885000
1!
10
11
0%
1V
12
0,
1-
#890000
0!
00
01
1%
#895000
1!
10
11
0%
0V
1U
02
1,
03
0-
13
1-
14
04
#900000
0!
00
01
1%
#905000
1!
10
11
0%
1V
1/
12
0,
03
0-
14
#910000
0!
00
01
1%
#915000
1!
10
11
0%
1T
0V
0U
1I
04
0/
02
1,
13
1-
08
0J
0-
0I
14
1;
09
18
1J
1.
0;
19
0.
#920000
0!
00
01
1%
#925000
1!
10
11
0%
1V
12
0,
1-
#930000
0!
00
01
1%
#935000
1!
10
11
0%
0V
1U
02
1,
03
0-
13
1-
1I
04
0I
14
08
0J
18
1J
1;
09
0;
19
1.
0.
#940000
0!
00
01
1%
#945000
1!
10
11
0%
1V
1/
12
0,
03
0-
1I
04
08
0J
1;
09
1.
#950000
0!
00
01
1%
#955000
1!
10
11
0%
0S
0T
0R
0V
0U
1Q
1K
18
1J
0I
14
0;
19
0/
02
1,
13
1-
0<
0.
09
0J
1<
1.
0-
04
1>
0=
0>
1=
1?
0?
#960000
0!
00
01
1%
#965000
1!
10
11
0%
1V
12
0,
1-
#970000
0!
00
01
1%
#975000
1!
10
11
0%
0V
1U
02
1,
03
0-
13
1-
14
04
#980000
0!
00
01
1%
#985000
1!
10
11
0%
1V
1/
12
0,
03
0-
14
#990000
0!
00
01
1%
#995000
1!
10
11
0%
1T
0V
0U
1I
04
0/
02
1,
13
1-
1J
0-
0I
14
0J
#1000000
0!
00
01
1%
#1005000
1!
10
11
0%
1V
12
0,
1-
#1010000
0!
00
01
1%
#1015000
1!
10
11
0%
0V
1U
02
1,
03
0-
13
1-
1I
04
0I
14
1J
0J
#1020000
0!
00
01
1%
#1025000
1!
10
11
0%
1V
1/
12
0,
03
0-
1I
04
1J
#1030000
0!
00
01
1%
#1035000
1!
10
11
0%
1S
0T
0V
0U
08
0J
0I
14
0/
02
1,
13
1-
19
18
1J
0-
04
09
#1040000
0!
00
01
1%
#1045000
1!
10
11
0%
1V
12
0,
1-
#1050000
0!
00
01
1%
#1055000
1!
10
11
0%
0V
1U
02
1,
03
0-
13
1-
14
04
#1060000
0!
00
01
1%
#1065000
1!
10
11
0%
1V
1/
12
0,
03
0-
14
#1070000
0!
00
01
1%
#1075000
1!
10
11
0%
1T
0V
0U
1I
04
0/
02
1,
13
1-
08
0J
0-
0I
14
19
18
1J
09
#1080000
0!
00
01
1%
#1085000
1!
10
11
0%
1V
12
0,
1-
#1090000
0!
00
01
1%
#1095000
1!
10
11
0%
0V
1U
02
1,
03
0-
13
1-
1I
04
0I
14
08
0J
18
1J
19
09
#1100000
0!
00
01
1%
#1105000
1!
10
11
0%
1V
1/
12
0,
03
0-
1I
04
08
0J
19
#1110000
0!
00
01
1%
#1115000
1!
10
11
0%
0S
0T
1R
0V
0U
18
1J
0I
14
1;
09
0/
02
1,
13
1-
0;
19
0J
0<
0.
0-
04
1<
1.
1>
0=
0>
1=
1?
0?
#1120000
0!
00
01
1%
#1125000
1!
10
11
0%
1V
12
0,
1-
#1130000
0!
00
01
1%
#1135000
1!
10
11
0%
0V
1U
02
1,
03
0-
13
1-
14
04
#1140000
0!
00
01
1%
#1145000
1!
10
11
0%
1V
1/
12
0,
03
0-
14
#1150000
0!
00
01
1%
#1155000
1!
10
11
0%
1T
0V
0U
0K
1I
04
0/
02
1,
13
1-
1J
0-
0I
14
0J
#1160000
0!
00
01
1%
#1165000
1!
10
11
0%
1V
12
0,
1-
#1170000
0!
00
01
1%
#1175000
1!
10
11
0%
0V
1U
02
1,
03
0-
13
1-
1I
04
0I
14
1J
0J
#1180000
0!
00
01
1%
#1185000
1!
10
11
0%
1V
1/
12
0,
03
0-
1I
04
1J
#1190000
0!
00
01
1%
#1195000
1!
10
11
0%
1S
0T
0V
0U
08
0J
0I
14
0/
02
1,
13
1-
1;
09
18
1J
0-
04
0<
0.
0;
19
1>
0=
1<
1.
1?
0>
1=
0?
#1200000
0!
00
01
1%
#1205000
1!
10
11
0%
1V
12
0,
1-
#1210000
0!
00
01
1%
#1215000
1!
10
11
0%
0V
1U
02
1,
03
0-
13
1-
14
04
#1220000
0!
00
01
1%
#1225000
1!
10
11
0%
1V
1/
12
0,
03
0-
14
#1230000
0!
00
01
1%
#1235000
1!
10
11
0%
1T
0V
0U
1I
04
0/
02
1,
13
1-
08
0J
0-
0I
14
1;
09
18
1J
0<
0.
0;
19
1>
0=
1<
1.
1?
0>
1=
0?
#1240000
0!
00
01
1%
#1245000
1!
10
11
0%
1V
12
0,
1-
#1250000
0!
00
01
1%
#1255000
1!
10
11
0%
0V
1U
02
1,
03
0-
13
1-
1I
04
0I
14
08
0J
18
1J
1;
09
0;
19
0<
0.
1<
1.
1>
0=
0>
1=
1?
0?
#1260000
0!
00
01
1%
#1265000
1!
10
11
0%
1V
1/
12
0,
03
0-
1I
04
08
0J
1;
09
0<
0.
1>
0=
1?
#1270000
0!
00
01
1%
#1275000
1!
10
11
0%
0S
0T
1O
0P
0R
0V
0U
0Q
1K
18
1J
0I
14
0@
0?
0>
1=
0;
19
0/
02
1,
13
1-
1<
1.
09
0J
1A
1@
1?
0.
0-
04
0=
0A
#1280000
0!
00
01
1%
#1285000
1!
10
11
0%
1V
12
0,
1-
#1290000
0!
00
01
1%
#1295000
1!
10
11
0%
0V
1U
02
1,
03
0-
13
1-
14
04
#1300000
0!
00
01
1%
#1305000
1!
10
11
0%
1V
1/
12
0,
03
0-
14
#1310000
0!
00
01
1%
#1315000
1!
10
11
0%
1T
0V
0U
1I
04
0/
02
1,
13
1-
1J
0-
0I
14
0J
#1320000
0!
00
01
1%
#1325000
1!
10
11
0%
1V
12
0,
1-
#1330000
0!
00
01
1%
#1335000
1!
10
11
0%
0V
1U
02
1,
03
0-
13
1-
1I
04
0I
14
1J
0J
#1340000
0!
00
01
1%
#1345000
1!
10
11
0%
1V
1/
12
0,
03
0-
1I
04
1J
#1350000
0!
00
01
1%
#1355000
1!
10
11
0%
1S
0T
0V
0U
08
0J
0I
14
0/
02
1,
13
1-
19
18
1J
0-
04
09
#1360000
0!
00
01
1%
#1365000
1!
10
11
0%
1V
12
0,
1-
#1370000
0!
00
01
1%
#1375000
1!
10
11
0%
0V
1U
02
1,
03
0-
13
1-
14
04
#1380000
0!
00
01
1%
#1385000
1!
10
11
0%
1V
1/
12
0,
03
0-
14
#1390000
0!
00
01
1%
#1395000
1!
10
11
0%
1T
0V
0U
1I
04
0/
02
1,
13
1-
08
0J
0-
0I
14
19
18
1J
09
#1400000
0!
00
01
1%
#1405000
1!
10
11
0%
1V
12
0,
1-
#1410000
0!
00
01
1%
#1415000
1!
10
11
0%
0V
1U
02
1,
03
0-
13
1-
1I
04
0I
14
08
0J
18
1J
19
09
#1420000
0!
00
01
1%
#1425000
1!
10
11
0%
1V
1/
12
0,
03
0-
1I
04
08
0J
19
#1430000
0!
00
01
1%
#1435000
1!
10
11
0%
0S
0T
1R
0V
0U
18
1J
0I
14
1;
09
0/
02
1,
13
1-
0;
19
0J
1.
0-
04
0.
#1440000
0!
00
01
1%
#1445000
1!
10
11
0%
1V
12
0,
1-
#1450000
0!
00
01
1%
#1455000
1!
10
11
0%
0V
1U
02
1,
03
0-
13
1-
14
04
#1460000
0!
00
01
1%
#1465000
1!
10
11
0%
1V
1/
12
0,
03
0-
14
#1470000
0!
00
01
1%
#1475000
1!
10
11
0%
1T
0V
0U
0K
1I
04
0/
02
1,
13
1-
1J
0-
0I
14
0J
#1480000
0!
00
01
1%
#1485000
1!
10
11
0%
1V
12
0,
1-
#1490000
0!
00
01
1%
#1495000
1!
10
11
0%
0V
1U
02
1,
03
0-
13
1-
1I
04
0I
14
1J
0J
#1500000
0!
00
01
1%
#1505000
1!
10
11
0%
1V
1/
12
0,
03
0-
1I
04
1J
#1510000
0!
00
01
1%
#1515000
1!
10
11
0%
1S
0T
0V
0U
08
0J
0I
14
0/
02
1,
13
1-
1;
09
18
1J
0-
04
1.
0;
19
0.
#1520000
0!
00
01
1%
#1525000
1!
10
11
0%
1V
12
0,
1-
#1530000
0!
00
01
1%
#1535000
1!
10
11
0%
0V
1U
02
1,
03
0-
13
1-
14
04
#1540000
0!
00
01
1%
#1545000
1!
10
11
0%
1V
1/
12
0,
03
0-
14
#1550000
0!
00
01
1%
#1555000
1!
10
11
0%
1T
0V
0U
1I
04
0/
02
1,
13
1-
08
0J
0-
0I
14
1;
09
18
1J
1.
0;
19
0.
#1560000
0!
00
01
1%
#1565000
1!
10
11
0%
1V
12
0,
1-
#1570000
0!
00
01
1%
#1575000
1!
10
11
0%
0V
1U
02
1,
03
0-
13
1-
1I
04
0I
14
08
0J
18
1J
1;
09
0;
19
1.
0.
#1580000
0!
00
01
1%
#1585000
1!
10
11
0%
1V
1/
12
0,
03
0-
1I
04
08
0J
1;
09
1.
#1590000
0!
00
01
1%
#1595000
1!
10
11
0%
0S
0T
0R
0V
0U
1Q
1K
18
1J
0I
14
0;
19
0/
02
1,
13
1-
0<
0.
09
0J
1<
1.
0-
04
1=
0=
#1600000
0!
00
01
1%
#1605000
1!
10
11
0%
1V
12
0,
1-
#1610000
0!
00
01
1%
#1615000
1!
10
11
0%
0V
1U
02
1,
03
0-
13
1-
14
04
#1620000
0!
00
01
1%
#1625000
1!
10
11
0%
1V
1/
12
0,
03
0-
14
#1630000
0!
00
01
1%
#1635000
1!
10
11
0%
1T
0V
0U
1I
04
0/
02
1,
13
1-
1J
0-
0I
14
0J
#1640000
0!
00
01
1%
#1645000
1!
10
11
0%
1V
12
0,
1-
#1650000
0!
00
01
1%
#1655000
1!
10
11
0%
0V
1U
02
1,
03
0-
13
1-
1I
04
0I
14
1J
0J
#1660000
0!
00
01
1%
#1665000
1!
10
11
0%
1V
1/
12
0,
03
0-
1I
04
1J
#1670000
0!
00
01
1%
#1675000
1!
10
11
0%
1S
0T
0V
0U
08
0J
0I
14
0/
02
1,
13
1-
19
18
1J
0-
04
09
#1680000
0!
00
01
1%
#1685000
1!
10
11
0%
1V
12
0,
1-
#1690000
0!
00
01
1%
#1695000
1!
10
11
0%
0V
1U
02
1,
03
0-
13
1-
14
04
#1700000
0!
00
01
1%
#1705000
1!
10
11
0%
1V
1/
12
0,
03
0-
14
#1710000
0!
00
01
1%
#1715000
1!
10
11
0%
1T
0V
0U
1I
04
0/
02
1,
13
1-
08
0J
0-
0I
14
19
18
1J
09
#1720000
0!
00
01
1%
#1725000
1!
10
11
0%
1V
12
0,
1-
#1730000
0!
00
01
1%
#1735000
1!
10
11
0%
0V
1U
02
1,
03
0-
13
1-
1I
04
0I
14
08
0J
18
1J
19
09
#1740000
0!
00
01
1%
#1745000
1!
10
11
0%
1V
1/
12
0,
03
0-
1I
04
08
0J
19
#1750000
0!
00
01
1%
#1755000
1!
10
11
0%
0S
0T
1R
0V
0U
18
1J
0I
14
1;
09
0/
02
1,
13
1-
0;
19
0J
0<
0.
0-
04
1<
1.
1=
0=
#1760000
0!
00
01
1%
#1765000
1!
10
11
0%
1V
12
0,
1-
#1770000
0!
00
01
1%
#1775000
1!
10
11
0%
0V
1U
02
1,
03
0-
13
1-
14
04
#1780000
0!
00
01
1%
#1785000
1!
10
11
0%
1V
1/
12
0,
03
0-
14
#1790000
0!
00
01
1%
#1795000
1!
10
11
0%
1T
0V
0U
0K
1I
04
0/
02
1,
13
1-
1J
0-
0I
14
0J
#1800000
0!
00
01
1%
#1805000
1!
10
11
0%
1V
12
0,
1-
#1810000
0!
00
01
1%
#1815000
1!
10
11
0%
0V
1U
02
1,
03
0-
13
1-
1I
04
0I
14
1J
0J
#1820000
0!
00
01
1%
#1825000
1!
10
11
0%
1V
1/
12
0,
03
0-
1I
04
1J
#1830000
0!
00
01
1%
#1835000
1!
10
11
0%
1S
0T
0V
0U
08
0J
0I
14
0/
02
1,
13
1-
1;
09
18
1J
0-
04
0<
0.
0;
19
1=
1<
1.
0=
#1840000
0!
00
01
1%
#1845000
1!
10
11
0%
1V
12
0,
1-
#1850000
0!
00
01
1%
#1855000
1!
10
11
0%
0V
1U
02
1,
03
0-
13
1-
14
04
#1860000
0!
00
01
1%
#1865000
1!
10
11
0%
1V
1/
12
0,
03
0-
14
#1870000
0!
00
01
1%
#1875000
1!
10
11
0%
1T
0V
0U
1I
04
0/
02
1,
13
1-
08
0J
0-
0I
14
1;
09
18
1J
0<
0.
0;
19
1=
1<
1.
0=
#1880000
0!
00
01
1%
#1885000
1!
10
11
0%
1V
12
0,
1-
#1890000
0!
00
01
1%
#1895000
1!
10
11
0%
0V
1U
02
1,
03
0-
13
1-
1I
04
0I
14
08
0J
18
1J
1;
09
0;
19
0<
0.
1<
1.
1=
0=
#1900000
0!
00
01
1%
#1905000
1!
10
11
0%
1V
1/
12
0,
03
0-
1I
04
08
0J
1;
09
0<
0.
1=
#1910000
0!
00
01
1%
#1915000
1!
10
11
0%
0S
0T
1P
0R
0V
0U
0Q
1K
18
1J
0I
14
1>
0=
0;
19
0/
02
1,
13
1-
1<
1.
09
0J
0@
0?
0.
0-
04
0>
1=
1A
1@
1?
0A
#1920000
0!
00
01
1%
#1925000
1!
10
11
0%
1V
12
0,
1-
#1930000
0!
00
01
1%
#1935000
1!
10
11
0%
0V
1U
02
1,
03
0-
13
1-
14
04
#1940000
0!
00
01
1%
#1945000
1!
10
11
0%
1V
1/
12
0,
03
0-
14
#1950000
0!
00
01
1%
#1955000
1!
10
11
0%
1T
0V
0U
1I
04
0/
02
1,
13
1-
1J
0-
0I
14
0J
#1960000
0!
00
01
1%
#1965000
1!
10
11
0%
1V
12
0,
1-
#1970000
0!
00
01
1%
#1975000
1!
10
11
0%
0V
1U
02
1,
03
0-
13
1-
1I
04
0I
14
1J
0J
#1980000
0!
00
01
1%
#1985000
1!
10
11
0%
1V
1/
12
0,
03
0-
1I
04
1J
#1990000
0!
00
01
1%
#1995000
1!
10
11
0%
1S
0T
0V
0U
08
0J
0I
14
0/
02
1,
13
1-
19
18
1J
0-
04
09
#2000000
0!
00
01
1%
#2005000
1!
10
11
0%
1V
12
0,
1-
#2010000
0!
00
01
1%
#2015000
1!
10
11
0%
0V
1U
02
1,
03
0-
13
1-
14
04
#2020000
0!
00
01
1%
#2025000
1!
10
11
0%
1V
1/
12
0,
03
0-
14
#2030000
0!
00
01
1%
#2035000
1!
10
11
0%
1T
0V
0U
1I
04
0/
02
1,
13
1-
08
0J
0-
0I
14
19
18
1J
09
#2040000
0!
00
01
1%
#2045000
1!
10
11
0%
1V
12
0,
1-
#2050000
0!
00
01
1%
