unidade3/simulation/qsim/controlecooler.msim.vcd
$comment
	File created using the following command:
		vcd file controlecooler.msim.vcd -direction
$end
$date
	Mon Jun 19 10:29:59 2017
$end
$version
	ModelSim Version 10.1d
$end
$timescale
	1ps
$end
$scope module TestLatch_vlg_vec_tst $end
$var reg 1 ! Clear $end
$var reg 1 " D $end
$var reg 1 # enable $end
$var wire 1 $ OUt $end
$var wire 1 % sampler $end
$scope module i1 $end
$var wire 1 & gnd $end
$var wire 1 ' vcc $end
$var wire 1 ( unknown $end
$var tri1 1 ) devclrn $end
$var tri1 1 * devpor $end
$var tri1 1 + devoe $end
$var wire 1 , Clear~combout $end
$var wire 1 - D~combout $end
$var wire 1 . enable~combout $end
$var wire 1 / inst~combout $end
$upscope $end
$upscope $end
$enddefinitions $end
#0
$dumpvars
0!
0"
0#
x$
x%
0&
1'
x(
1)
1*
1+
0,
0-
0.
x/
$end
#5000000
1"
1-
0%
#10000000
0"
0-
1%
#14080000
1!
1,
0%
0/
0$
#15000000
1"
1-
1%
#20000000
1#
0"
1.
0-
0%
#20480000
0!
0,
1%
#25000000
1"
1-
0%
1/
1$
#30000000
0"
0-
1%
0/
0$
#35000000
1"
1-
0%
1/
1$
#40000000
0#
0"
0.
0-
1%
#45000000
1"
1-
0%
#50000000
0"
0-
1%
#55000000
1"
1-
0%
#60000000
1#
0"
1.
0-
1%
0/
0$
#65000000
1"
1-
0%
1/
1$
#66560000
1!
1,
1%
0/
0$
#70000000
0"
0-
0%
#75000000
1"
1-
1%
#75520000
0!
0,
0%
1/
1$
#80000000
0#
0"
0.
0-
1%
#85000000
1"
1-
0%
#90000000
0"
0-
1%
#95000000
1"
1-
0%
