projetofinal/fpga/simulation/qsim/PID_controller.msim.vcd
$comment
	File created using the following command:
		vcd file PID_controller.msim.vcd -direction
$end
$date
	Wed Jun 28 13:33:38 2017
$end
$version
	ModelSim Version 10.1d
$end
$timescale
	1ps
$end
$scope module rising_edge_detector_vlg_vec_tst $end
$var reg 1 ! clear $end
$var reg 1 " clk $end
$var reg 1 # enable $end
$var wire 1 $ q [31] $end
$var wire 1 % q [30] $end
$var wire 1 & q [29] $end
$var wire 1 ' q [28] $end
$var wire 1 ( q [27] $end
$var wire 1 ) q [26] $end
$var wire 1 * q [25] $end
$var wire 1 + q [24] $end
$var wire 1 , q [23] $end
$var wire 1 - q [22] $end
$var wire 1 . q [21] $end
$var wire 1 / q [20] $end
$var wire 1 0 q [19] $end
$var wire 1 1 q [18] $end
$var wire 1 2 q [17] $end
$var wire 1 3 q [16] $end
$var wire 1 4 q [15] $end
$var wire 1 5 q [14] $end
$var wire 1 6 q [13] $end
$var wire 1 7 q [12] $end
$var wire 1 8 q [11] $end
$var wire 1 9 q [10] $end
$var wire 1 : q [9] $end
$var wire 1 ; q [8] $end
$var wire 1 < q [7] $end
$var wire 1 = q [6] $end
$var wire 1 > q [5] $end
$var wire 1 ? q [4] $end
$var wire 1 @ q [3] $end
$var wire 1 A q [2] $end
$var wire 1 B q [1] $end
$var wire 1 C q [0] $end
$var wire 1 D sampler $end
$scope module i1 $end
$var wire 1 E gnd $end
$var wire 1 F vcc $end
$var wire 1 G unknown $end
$var tri1 1 H devclrn $end
$var tri1 1 I devpor $end
$var tri1 1 J devoe $end
$var wire 1 K clk~combout $end
$var wire 1 L clk~clkctrl_outclk $end
$var wire 1 M edge_number[0]~93_combout $end
$var wire 1 N clear~combout $end
$var wire 1 O clear~clkctrl_outclk $end
$var wire 1 P edge_number[1]~31_combout $end
$var wire 1 Q edge_number[1]~32 $end
$var wire 1 R edge_number[2]~33_combout $end
$var wire 1 S edge_number[2]~34 $end
$var wire 1 T edge_number[3]~35_combout $end
$var wire 1 U edge_number[3]~36 $end
$var wire 1 V edge_number[4]~37_combout $end
$var wire 1 W edge_number[4]~38 $end
$var wire 1 X edge_number[5]~39_combout $end
$var wire 1 Y edge_number[5]~40 $end
$var wire 1 Z edge_number[6]~41_combout $end
$var wire 1 [ edge_number[6]~42 $end
$var wire 1 \ edge_number[7]~43_combout $end
$var wire 1 ] edge_number[7]~44 $end
$var wire 1 ^ edge_number[8]~45_combout $end
$var wire 1 _ edge_number[8]~46 $end
$var wire 1 ` edge_number[9]~47_combout $end
$var wire 1 a edge_number[9]~48 $end
$var wire 1 b edge_number[10]~49_combout $end
$var wire 1 c edge_number[10]~50 $end
$var wire 1 d edge_number[11]~51_combout $end
$var wire 1 e edge_number[11]~52 $end
$var wire 1 f edge_number[12]~53_combout $end
$var wire 1 g edge_number[12]~54 $end
$var wire 1 h edge_number[13]~55_combout $end
$var wire 1 i edge_number[13]~56 $end
$var wire 1 j edge_number[14]~57_combout $end
$var wire 1 k edge_number[14]~58 $end
$var wire 1 l edge_number[15]~59_combout $end
$var wire 1 m edge_number[15]~60 $end
$var wire 1 n edge_number[16]~61_combout $end
$var wire 1 o edge_number[16]~62 $end
$var wire 1 p edge_number[17]~63_combout $end
$var wire 1 q edge_number[17]~64 $end
$var wire 1 r edge_number[18]~65_combout $end
$var wire 1 s edge_number[18]~66 $end
$var wire 1 t edge_number[19]~67_combout $end
$var wire 1 u edge_number[19]~68 $end
$var wire 1 v edge_number[20]~69_combout $end
$var wire 1 w edge_number[20]~70 $end
$var wire 1 x edge_number[21]~71_combout $end
$var wire 1 y edge_number[21]~72 $end
$var wire 1 z edge_number[22]~73_combout $end
$var wire 1 { edge_number[22]~74 $end
$var wire 1 | edge_number[23]~75_combout $end
$var wire 1 } edge_number[23]~76 $end
$var wire 1 ~ edge_number[24]~77_combout $end
$var wire 1 !! edge_number[24]~78 $end
$var wire 1 "! edge_number[25]~79_combout $end
$var wire 1 #! edge_number[25]~80 $end
$var wire 1 $! edge_number[26]~81_combout $end
$var wire 1 %! edge_number[26]~82 $end
$var wire 1 &! edge_number[27]~83_combout $end
$var wire 1 '! edge_number[27]~84 $end
$var wire 1 (! edge_number[28]~85_combout $end
$var wire 1 )! edge_number[28]~86 $end
$var wire 1 *! edge_number[29]~87_combout $end
$var wire 1 +! edge_number[29]~88 $end
$var wire 1 ,! edge_number[30]~89_combout $end
$var wire 1 -! edge_number[30]~90 $end
$var wire 1 .! edge_number[31]~91_combout $end
$var wire 1 /! edge_number [31] $end
$var wire 1 0! edge_number [30] $end
$var wire 1 1! edge_number [29] $end
$var wire 1 2! edge_number [28] $end
$var wire 1 3! edge_number [27] $end
$var wire 1 4! edge_number [26] $end
$var wire 1 5! edge_number [25] $end
$var wire 1 6! edge_number [24] $end
$var wire 1 7! edge_number [23] $end
$var wire 1 8! edge_number [22] $end
$var wire 1 9! edge_number [21] $end
$var wire 1 :! edge_number [20] $end
$var wire 1 ;! edge_number [19] $end
$var wire 1 <! edge_number [18] $end
$var wire 1 =! edge_number [17] $end
$var wire 1 >! edge_number [16] $end
$var wire 1 ?! edge_number [15] $end
$var wire 1 @! edge_number [14] $end
$var wire 1 A! edge_number [13] $end
$var wire 1 B! edge_number [12] $end
$var wire 1 C! edge_number [11] $end
$var wire 1 D! edge_number [10] $end
$var wire 1 E! edge_number [9] $end
$var wire 1 F! edge_number [8] $end
$var wire 1 G! edge_number [7] $end
$var wire 1 H! edge_number [6] $end
$var wire 1 I! edge_number [5] $end
$var wire 1 J! edge_number [4] $end
$var wire 1 K! edge_number [3] $end
$var wire 1 L! edge_number [2] $end
$var wire 1 M! edge_number [1] $end
$var wire 1 N! edge_number [0] $end
$upscope $end
$upscope $end
$enddefinitions $end
#0
$dumpvars
0!
0"
0#
0C
0B
0A
0@
0?
0>
0=
0<
0;
0:
09
08
07
06
05
04
03
02
01
00
0/
0.
0-
0,
0+
0*
0)
0(
0'
0&
0%
0$
xD
0E
1F
xG
1H
1I
1J
0K
0L
1M
0N
0O
0P
0Q
0R
1S
0T
0U
0V
1W
0X
0Y
0Z
1[
0\
0]
0^
1_
0`
0a
0b
1c
0d
0e
0f
1g
0h
0i
0j
1k
0l
0m
0n
1o
0p
0q
0r
1s
0t
0u
0v
1w
0x
0y
0z
1{
0|
0}
0~
1!!
0"!
0#!
0$!
1%!
0&!
0'!
0(!
1)!
0*!
0+!
0,!
1-!
0.!
0N!
0M!
0L!
0K!
0J!
0I!
0H!
0G!
0F!
0E!
0D!
0C!
0B!
0A!
0@!
0?!
0>!
0=!
0<!
0;!
0:!
09!
08!
07!
06!
05!
04!
03!
02!
01!
00!
0/!
$end
#5000
1"
1K
1L
0D
1N!
1P
0M
1C
#10000
0"
0K
0L
1D
#12500
1#
0D
#15000
1"
1K
1L
1D
1M!
0N!
1M
1B
0C
#20000
0"
0K
0L
0D
#25000
0#
1"
1K
1L
1D
1N!
1Q
0P
0M
1C
1R
#30000
0"
0K
0L
0D
#35000
1"
1K
1L
1D
1L!
0M!
0N!
0S
0R
0Q
1M
1A
0B
0C
1T
1S
1R
0T
#37500
1#
0D
#40000
0"
0K
0L
1D
#45000
1"
1K
1L
0D
1N!
1P
0M
1C
#50000
0#
0"
0K
0L
1D
#55000
1"
1K
1L
0D
1M!
0N!
1M
1B
0C
#60000
0"
0K
0L
1D
#62500
1#
0D
#65000
1"
1K
1L
1D
1N!
1Q
0P
0M
1C
0S
0R
1T
#70000
0"
0K
0L
0D
#75000
0#
1"
1K
1L
1D
1K!
0L!
0M!
0N!
1U
0T
1S
1R
0Q
1M
1@
0A
0B
0C
1V
0U
1T
0R
0V
#80000
0"
0K
0L
0D
#85000
1"
1K
1L
1D
1N!
1P
0M
1C
#87500
1#
0D
#90000
0"
0K
0L
1D
#95000
1"
1K
1L
0D
1M!
0N!
1M
1B
0C
#100000
0#
0"
0K
0L
1D
#105000
1"
1K
1L
0D
1N!
1Q
0P
0M
1C
1R
#110000
0"
0K
0L
1D
#112500
1#
0D
#115000
1"
1K
1L
1D
1L!
0M!
0N!
0S
0R
0Q
1M
1A
0B
0C
1U
0T
1S
1R
1V
0U
1T
0V
#120000
0"
0K
0L
0D
#125000
0#
1"
1K
1L
1D
1N!
1P
0M
1C
#130000
0"
0K
0L
0D
#135000
1"
1K
1L
1D
1M!
0N!
1M
1B
0C
#137500
1#
0D
#140000
0"
0K
0L
1D
#145000
1"
1K
1L
0D
1N!
1Q
0P
0M
1C
0S
0R
1U
0T
1V
#150000
0#
0"
0K
0L
1D
#155000
1"
1K
1L
0D
1J!
0K!
0L!
0M!
0N!
0W
0V
0U
1T
1S
1R
0Q
1M
1?
0@
0A
0B
0C
1X
1W
1V
0T
0R
0X
#160000
0"
0K
0L
1D
#162500
1#
0D
#165000
1"
1K
1L
1D
1N!
1P
0M
1C
#170000
0"
0K
0L
0D
#175000
0#
1"
1K
1L
1D
1M!
0N!
1M
1B
0C
#180000
0"
0K
0L
0D
#185000
1"
1K
1L
1D
1N!
1Q
0P
0M
1C
1R
#187500
1#
0D
#190000
0"
0K
0L
1D
#195000
1"
1K
1L
0D
1L!
0M!
0N!
0S
0R
0Q
1M
1A
0B
0C
1T
1S
1R
0T
#200000
0#
0"
0K
0L
1D
#205000
1"
1K
1L
0D
1N!
1P
0M
1C
#210000
0"
0K
0L
1D
#212500
1#
0D
#215000
1"
1K
1L
1D
1M!
0N!
1M
1B
0C
#220000
0"
0K
0L
0D
#225000
0#
1"
1K
1L
1D
1N!
1Q
0P
0M
1C
0S
0R
1T
#230000
0"
0K
0L
0D
#235000
1"
1K
1L
1D
1K!
0L!
0M!
0N!
1U
0T
1S
1R
0Q
1M
1@
0A
0B
0C
0W
0V
0U
1T
0R
1X
1W
1V
0X
#237500
1#
0D
#240000
0"
0K
0L
1D
#245000
1"
1K
1L
0D
1N!
1P
0M
1C
#250000
1!
0#
0"
1N
0K
0L
1O
1D
0J!
0K!
0N!
0V
0T
0P
1M
0?
0@
0C
#255000
1"
1K
1L
0D
#260000
0"
0K
0L
1D
#262500
1#
0D
#265000
1"
1K
1L
1D
#270000
0"
0K
0L
0D
#275000
0#
1"
1K
1L
1D
#280000
0"
0K
0L
0D
#285000
1"
1K
1L
1D
#287500
1#
0D
#290000
0"
0K
0L
1D
#295000
1"
1K
1L
0D
#300000
0#
0"
0K
0L
1D
#305000
1"
1K
1L
0D
#310000
0"
0K
0L
1D
#312500
1#
0D
#315000
1"
1K
1L
1D
#320000
0"
0K
0L
0D
#325000
0#
1"
1K
1L
1D
#330000
0"
0K
0L
0D
#335000
1"
1K
1L
1D
#337500
1#
0D
#340000
0"
0K
0L
1D
#345000
1"
1K
1L
0D
#350000
0#
0"
0K
0L
1D
#355000
1"
1K
1L
0D
#360000
0"
0K
0L
1D
#362500
1#
0D
#365000
1"
1K
1L
1D
#370000
0"
0K
0L
0D
#375000
0#
1"
1K
1L
1D
#380000
0"
0K
0L
0D
#385000
1"
1K
1L
1D
#387500
1#
0D
#390000
0"
0K
0L
1D
#395000
1"
1K
1L
0D
#400000
0#
0"
0K
0L
1D
#405000
1"
1K
1L
0D
#410000
0"
0K
0L
1D
#412500
1#
0D
#415000
1"
1K
1L
1D
#420000
0"
0K
0L
0D
#425000
0#
1"
1K
1L
1D
#430000
0"
0K
0L
0D
#435000
1"
1K
1L
1D
#437500
1#
0D
#440000
0"
0K
0L
1D
#445000
1"
1K
1L
0D
#450000
0#
0"
0K
0L
1D
#455000
1"
1K
1L
0D
#460000
0"
0K
0L
1D
#462500
1#
0D
#465000
1"
1K
1L
1D
#470000
0"
0K
0L
0D
#475000
0#
1"
1K
1L
1D
#480000
0"
0K
0L
0D
#485000
1"
1K
1L
1D
#487500
1#
0D
#490000
0"
0K
0L
1D
#495000
1"
1K
1L
0D
#500000
0!
0#
0"
0N
0K
0L
0O
1D
#505000
1"
1K
1L
0D
1N!
1P
0M
1C
#510000
0"
0K
0L
1D
#512500
1#
0D
#515000
1"
1K
1L
1D
1M!
0N!
1M
1B
0C
#520000
0"
0K
0L
0D
#525000
0#
1"
1K
1L
1D
1N!
1Q
0P
0M
1C
1R
#530000
0"
0K
0L
0D
#535000
1"
1K
1L
1D
1L!
0M!
0N!
0S
0R
0Q
1M
1A
0B
0C
1T
1S
1R
0T
#537500
1#
0D
#540000
0"
0K
0L
1D
#545000
1"
1K
1L
0D
1N!
1P
0M
1C
#550000
0#
0"
0K
0L
1D
#555000
1"
1K
1L
0D
1M!
0N!
1M
1B
0C
#560000
0"
0K
0L
1D
#562500
1#
0D
#565000
1"
1K
1L
1D
1N!
1Q
0P
0M
1C
0S
0R
1T
#570000
0"
0K
0L
0D
#575000
0#
1"
1K
1L
1D
1K!
0L!
0M!
0N!
1U
0T
1S
1R
0Q
1M
1@
0A
0B
0C
1V
0U
1T
0R
0V
#580000
0"
0K
0L
0D
#585000
1"
1K
1L
1D
1N!
1P
0M
1C
#587500
1#
0D
#590000
0"
0K
0L
1D
#595000
1"
1K
1L
0D
1M!
0N!
1M
1B
0C
#600000
0#
0"
0K
0L
1D
#605000
1"
1K
1L
0D
1N!
1Q
0P
0M
1C
1R
#610000
0"
0K
0L
1D
#612500
1#
0D
#615000
1"
1K
1L
1D
1L!
0M!
0N!
0S
0R
0Q
1M
1A
0B
0C
1U
0T
1S
1R
1V
0U
1T
0V
#620000
0"
0K
0L
0D
#625000
0#
1"
1K
1L
1D
1N!
1P
0M
1C
#630000
0"
0K
0L
0D
#635000
1"
1K
1L
1D
1M!
0N!
1M
1B
0C
#637500
1#
0D
#640000
0"
0K
0L
1D
#645000
1"
1K
1L
0D
1N!
1Q
0P
0M
1C
0S
0R
1U
0T
1V
#650000
0#
0"
0K
0L
1D
#655000
1"
1K
1L
0D
1J!
0K!
0L!
0M!
0N!
0W
0V
0U
1T
1S
1R
0Q
1M
1?
0@
0A
0B
0C
1X
1W
1V
0T
0R
0X
#660000
0"
0K
0L
1D
#662500
1#
0D
#665000
1"
1K
1L
1D
1N!
1P
0M
1C
#670000
0"
0K
0L
0D
#675000
0#
1"
1K
1L
1D
1M!
0N!
1M
1B
0C
#680000
0"
0K
0L
0D
#685000
1"
1K
1L
1D
1N!
1Q
0P
0M
1C
1R
#687500
1#
0D
#690000
0"
0K
0L
1D
#695000
1"
1K
1L
0D
1L!
0M!
0N!
0S
0R
0Q
1M
1A
0B
0C
1T
1S
1R
0T
#700000
0#
0"
0K
0L
1D
#705000
1"
1K
1L
0D
1N!
1P
0M
1C
#710000
0"
0K
0L
1D
#712500
1#
0D
#715000
1"
1K
1L
1D
1M!
0N!
1M
1B
0C
#720000
0"
0K
0L
0D
#725000
0#
1"
1K
1L
1D
1N!
1Q
0P
0M
1C
0S
0R
1T
#730000
0"
0K
0L
0D
#735000
1"
1K
1L
1D
1K!
0L!
0M!
0N!
1U
0T
1S
1R
0Q
1M
1@
0A
0B
0C
0W
0V
0U
1T
0R
1X
1W
1V
0X
#737500
1#
0D
#740000
0"
0K
0L
1D
#745000
1"
1K
1L
0D
1N!
1P
0M
1C
#750000
1!
0#
0"
1N
0K
0L
1O
1D
0J!
0K!
0N!
0V
0T
0P
1M
0?
0@
0C
#755000
1"
1K
1L
0D
#760000
0"
0K
0L
1D
#762500
1#
0D
#765000
1"
1K
1L
1D
#770000
0"
0K
0L
0D
#775000
0#
1"
1K
1L
1D
#780000
0"
0K
0L
0D
#785000
1"
1K
1L
1D
#787500
1#
0D
#790000
0"
0K
0L
1D
#795000
1"
1K
1L
0D
#800000
0#
0"
0K
0L
1D
#805000
1"
1K
1L
0D
#810000
0"
0K
0L
1D
#812500
1#
0D
#815000
1"
1K
1L
1D
#820000
0"
0K
0L
0D
#825000
0#
1"
1K
1L
1D
#830000
0"
0K
0L
0D
#835000
1"
1K
1L
1D
#837500
1#
0D
#840000
0"
0K
0L
1D
#845000
1"
1K
1L
0D
#850000
0#
0"
0K
0L
1D
#855000
1"
1K
1L
0D
#860000
0"
0K
0L
1D
#862500
1#
0D
#865000
1"
1K
1L
1D
#870000
0"
0K
0L
0D
#875000
0#
1"
1K
1L
1D
#880000
0"
0K
0L
0D
#885000
1"
1K
1L
1D
#887500
1#
0D
#890000
0"
0K
0L
1D
#895000
1"
1K
1L
0D
#900000
0#
0"
0K
0L
1D
#905000
1"
1K
1L
0D
#910000
0"
0K
0L
1D
#912500
1#
0D
#915000
1"
1K
1L
1D
#920000
0"
0K
0L
0D
#925000
0#
1"
1K
1L
1D
#930000
0"
0K
0L
0D
#935000
1"
1K
1L
1D
#937500
1#
0D
#940000
0"
0K
0L
1D
#945000
1"
1K
1L
0D
#950000
0#
0"
0K
0L
1D
#955000
1"
1K
1L
0D
#960000
0"
0K
0L
1D
#962500
1#
0D
#965000
1"
1K
1L
1D
#970000
0"
0K
0L
0D
#975000
0#
1"
1K
1L
1D
#980000
0"
0K
0L
0D
#985000
1"
1K
1L
1D
#987500
1#
0D
#990000
0"
0K
0L
1D
#995000
1"
1K
1L
0D
